maven_project_name
maven_project_group
project_name
EXPERIMENTAL_bug_count
EXPERIMENTAL_defect_density
MT_CORRECTNESS_bug_count
MT_CORRECTNESS_defect_density
BAD_PRACTICE_bug_count
BAD_PRACTICE_defect_density
CORRECTNESS_bug_count
CORRECTNESS_defect_density
I18N_bug_count
I18N_defect_density
MALICIOUS_CODE_bug_count
MALICIOUS_CODE_defect_density
PERFORMANCE_bug_count
PERFORMANCE_defect_density
SECURITY_bug_count
SECURITY_defect_density
STYLE_bug_count
STYLE_defect_density
sum_total_bug
sum_total_size
project_defect_density
version_count

